\relax 
\providecommand\babel@aux[2]{}
\@nameuse{bbl@beforestart}
\catcode `"\active 
\catcode `<\active 
\catcode `>\active 
\@nameuse{es@quoting}
\babel@aux{spanish}{}
\@writefile{toc}{\contentsline {part}{I\hspace  {1em}Probabilidad}{1}{}\protected@file@percent }
\@writefile{toc}{\contentsline {chapter}{\numberline {1}Introducción}{2}{}\protected@file@percent }
\@writefile{lof}{\addvspace {10\p@ }}
\@writefile{lot}{\addvspace {10\p@ }}
\@writefile{toc}{\contentsline {section}{\numberline {1.1}Métodos de conteo}{2}{}\protected@file@percent }
\@writefile{toc}{\contentsline {section}{\numberline {1.2}Combinaciones}{2}{}\protected@file@percent }
\@writefile{toc}{\contentsline {section}{\numberline {1.3}Coeficientes binomiales}{2}{}\protected@file@percent }
\@writefile{toc}{\contentsline {chapter}{\numberline {2}Probabilidad}{4}{}\protected@file@percent }
\@writefile{lof}{\addvspace {10\p@ }}
\@writefile{lot}{\addvspace {10\p@ }}
\@writefile{toc}{\contentsline {section}{\numberline {2.1}Introducción}{4}{}\protected@file@percent }
\@writefile{toc}{\contentsline {section}{\numberline {2.2}Eventos}{4}{}\protected@file@percent }
\@writefile{toc}{\contentsline {section}{\numberline {2.3}La probabilidad de un evento}{4}{}\protected@file@percent }
\@writefile{toc}{\contentsline {section}{\numberline {2.4}Algunas reglas de probabilidad}{5}{}\protected@file@percent }
\@writefile{toc}{\contentsline {section}{\numberline {2.5}Probabilidad condicional}{5}{}\protected@file@percent }
\@writefile{toc}{\contentsline {section}{\numberline {2.6}Eventos independientes}{5}{}\protected@file@percent }
\@writefile{toc}{\contentsline {section}{\numberline {2.7}Teorema de Bayes}{5}{}\protected@file@percent }
\@writefile{toc}{\contentsline {chapter}{\numberline {3}Distribuciones y densidades de probabilidad}{6}{}\protected@file@percent }
\@writefile{lof}{\addvspace {10\p@ }}
\@writefile{lot}{\addvspace {10\p@ }}
\@writefile{toc}{\contentsline {section}{\numberline {3.1}Distribuciones de probabilidad}{6}{}\protected@file@percent }
\@writefile{toc}{\contentsline {subsection}{\numberline {3.1.1}Funciones de distribución acumulativa}{6}{}\protected@file@percent }
\@writefile{toc}{\contentsline {section}{\numberline {3.2}Funciones de densidad de probabilidad}{6}{}\protected@file@percent }
\@writefile{toc}{\contentsline {subsection}{\numberline {3.2.1}Funciones de distribución acumulativa de variable aleatoria}{7}{}\protected@file@percent }
\@writefile{toc}{\contentsline {section}{\numberline {3.3}Distribuciones multivariadas}{7}{}\protected@file@percent }
\@writefile{toc}{\contentsline {subsection}{\numberline {3.3.1}Distribuciones de probabilidad conjunta}{7}{}\protected@file@percent }
\@writefile{toc}{\contentsline {subsection}{\numberline {3.3.2}Funciones de densidad de probabilidad conjunta}{7}{}\protected@file@percent }
\@writefile{toc}{\contentsline {section}{\numberline {3.4}Distribuciones marginales}{8}{}\protected@file@percent }
\@writefile{toc}{\contentsline {section}{\numberline {3.5}Distribuciones condicionales}{8}{}\protected@file@percent }
\@writefile{toc}{\contentsline {chapter}{\numberline {4}Esperanza matemática}{9}{}\protected@file@percent }
\@writefile{lof}{\addvspace {10\p@ }}
\@writefile{lot}{\addvspace {10\p@ }}
\@writefile{toc}{\contentsline {section}{\numberline {4.1}Momentos}{9}{}\protected@file@percent }
\@writefile{toc}{\contentsline {section}{\numberline {4.2}Teorema de Chebyshev}{10}{}\protected@file@percent }
\@writefile{toc}{\contentsline {section}{\numberline {4.3}Funciones generatrices de momentos}{10}{}\protected@file@percent }
\@writefile{toc}{\contentsline {section}{\numberline {4.4}Momentos producto}{10}{}\protected@file@percent }
\@writefile{toc}{\contentsline {chapter}{\numberline {5}Distribuciones de probabilidad especiales}{12}{}\protected@file@percent }
\@writefile{lof}{\addvspace {10\p@ }}
\@writefile{lot}{\addvspace {10\p@ }}
\@writefile{toc}{\contentsline {section}{\numberline {5.1}Distribución uniforme discreta}{12}{}\protected@file@percent }
\@writefile{toc}{\contentsline {section}{\numberline {5.2}Otras distribuciones}{12}{}\protected@file@percent }
\@writefile{toc}{\contentsline {section}{\numberline {5.3}Distribución binomial}{12}{}\protected@file@percent }
\@writefile{toc}{\contentsline {section}{\numberline {5.4}Distribución binomial negativa y geométrica}{13}{}\protected@file@percent }
\@writefile{toc}{\contentsline {section}{\numberline {5.5}Distribución hipergeométrica}{13}{}\protected@file@percent }
\@writefile{toc}{\contentsline {section}{\numberline {5.6}Distribución de Poisson}{13}{}\protected@file@percent }
\@writefile{toc}{\contentsline {section}{\numberline {5.7}Distribución multinomial}{13}{}\protected@file@percent }
\@writefile{toc}{\contentsline {section}{\numberline {5.8}Distribución hipergeométrica multivariada}{13}{}\protected@file@percent }
\@writefile{toc}{\contentsline {chapter}{\numberline {6}Densidades de probabilidad especiales}{14}{}\protected@file@percent }
\@writefile{lof}{\addvspace {10\p@ }}
\@writefile{lot}{\addvspace {10\p@ }}
\@writefile{toc}{\contentsline {section}{\numberline {6.1}Distribución uniforme}{14}{}\protected@file@percent }
\@writefile{toc}{\contentsline {section}{\numberline {6.2}Distribución gamma, exponencial y ji cuadrada}{14}{}\protected@file@percent }
\@writefile{toc}{\contentsline {section}{\numberline {6.3}Distribución beta}{15}{}\protected@file@percent }
\@writefile{toc}{\contentsline {section}{\numberline {6.4}Distribución normal}{15}{}\protected@file@percent }
\@writefile{toc}{\contentsline {section}{\numberline {6.5}Aproximación normal a la distribución normal}{16}{}\protected@file@percent }
\@writefile{toc}{\contentsline {part}{II\hspace  {1em}Estadística}{17}{}\protected@file@percent }
\@writefile{toc}{\contentsline {chapter}{\numberline {7}Estimación puntual}{18}{}\protected@file@percent }
\@writefile{lof}{\addvspace {10\p@ }}
\@writefile{lot}{\addvspace {10\p@ }}
\@writefile{toc}{\contentsline {section}{\numberline {7.1}Muestras}{18}{}\protected@file@percent }
\@writefile{toc}{\contentsline {section}{\numberline {7.2}Insesgadez}{18}{}\protected@file@percent }
\@writefile{toc}{\contentsline {section}{\numberline {7.3}Eficiencia}{19}{}\protected@file@percent }
\@writefile{toc}{\contentsline {section}{\numberline {7.4}Consistencia}{19}{}\protected@file@percent }
\@writefile{toc}{\contentsline {section}{\numberline {7.5}Independencia}{19}{}\protected@file@percent }
\@writefile{toc}{\contentsline {section}{\numberline {7.6}Máxima verosimilitud}{19}{}\protected@file@percent }
\@writefile{toc}{\contentsline {chapter}{\numberline {8}Estimación por intervalos}{20}{}\protected@file@percent }
\@writefile{lof}{\addvspace {10\p@ }}
\@writefile{lot}{\addvspace {10\p@ }}
\@writefile{toc}{\contentsline {section}{\numberline {8.1}Estimación de medias}{20}{}\protected@file@percent }
\@writefile{toc}{\contentsline {section}{\numberline {8.2}Estimación de proporciones}{20}{}\protected@file@percent }
\@writefile{toc}{\contentsline {section}{\numberline {8.3}Estimación de la varianza}{20}{}\protected@file@percent }
\@writefile{toc}{\contentsline {section}{\numberline {8.4}Estimación de la diferencia de medias}{21}{}\protected@file@percent }
\@writefile{toc}{\contentsline {section}{\numberline {8.5}Estimación de la diferencia de proporciones}{21}{}\protected@file@percent }
\@writefile{toc}{\contentsline {section}{\numberline {8.6}Estimación de la razón de varianzas}{21}{}\protected@file@percent }
\gdef \@abspage@last{22}
